module github.com/megatano/megatano_api

go 1.17

require (
	github.com/joho/godotenv v1.4.0
	gorm.io/driver/postgres v1.2.2
)

require (
	github.com/andybalholm/brotli v1.0.2 // indirect
	github.com/dgrijalva/jwt-go v3.2.0+incompatible // indirect
	github.com/gofiber/fiber v1.13.3 // indirect
	github.com/gofiber/utils v0.0.9 // indirect
	github.com/golang-jwt/jwt/v4 v4.1.0 // indirect
	github.com/gorilla/schema v1.1.0 // indirect
	github.com/klauspost/compress v1.13.4 // indirect
	github.com/mattn/go-colorable v0.1.7 // indirect
	github.com/mattn/go-isatty v0.0.12 // indirect
	github.com/valyala/bytebufferpool v1.0.0 // indirect
	github.com/valyala/fasthttp v1.31.0 // indirect
	github.com/valyala/tcplisten v1.0.0 // indirect
	golang.org/x/sys v0.0.0-20210615035016-665e8c7367d1 // indirect
)

require (
	github.com/gofiber/fiber/v2 v2.21.0
	github.com/gofiber/jwt v0.2.0
	github.com/gofiber/jwt/v3 v3.2.0
	github.com/google/uuid v1.3.0
	github.com/jackc/chunkreader/v2 v2.0.1 // indirect
	github.com/jackc/pgconn v1.10.0 // indirect
	github.com/jackc/pgio v1.0.0 // indirect
	github.com/jackc/pgpassfile v1.0.0 // indirect
	github.com/jackc/pgproto3/v2 v2.1.1 // indirect
	github.com/jackc/pgservicefile v0.0.0-20200714003250-2b9c44734f2b // indirect
	github.com/jackc/pgtype v1.8.1 // indirect
	github.com/jackc/pgx/v4 v4.13.0 // indirect
	github.com/jinzhu/inflection v1.0.0 // indirect
	github.com/jinzhu/now v1.1.2 // indirect
	golang.org/x/crypto v0.0.0-20210921155107-089bfa567519 // indirect
	golang.org/x/text v0.3.7 // indirect
	gorm.io/gorm v1.22.3 // indirect
)
